…
## # A tibble: 3 x 2
##   depression_severity avg_BMI
##   <chr>                 <dbl>
## 1 high                   30.2
## 2 low                    28.2
## 3 med                    32.4

#mean fatigue grouped by age and depression severity
CRT_new %>% group_by(age,depression_severity) %>%
  summarize(avg_bfi = mean(bfi_total, na.rm=T))

## # A tibble: 57 x 3
## # Groups:   age [38]
##      age depression_severity avg_bfi
##    <dbl> <chr>                 <dbl>
##  1    19 med                    42  
##  2    20 low                     6  
##  3    20 med                    68  
##  4    21 low                    29.5
##  5    21 med                    59  
##  6    23 high                   65  
##  7    23 med                    71  
##  8    24 low                    24  
##  9    24 med                    56.2
## 10    25 high                   69  
## # … with 47 more rows
…
## # A tibble: 3 x 2
##   depression_severity std_rt_correct
##   <chr>                        <dbl>
## 1 high                          201.
## 2 low                           116.
## 3 med                           186.

#minimum ids score grouped by age
CRT_new %>% group_by(age) %>%
  summarize(min_ids = min(ids_total, na.rm=T))

## # A tibble: 38 x 2
##      age min_ids
##    <dbl>   <dbl>
##  1    19      32
##  2    20      29
##  3    21      27
##  4    23      43
##  5    24      29
##  6    25      36
##  7    26      40
##  8    27      32
##  9    28      22
## 10    29      45
## # … with 28 more rows
…
